{
    "config": "/mnt/HDD/nicolas-capetillo/segmentacion-de-salmones/spinenet_code/mask_rcnn_spinenet_49_B_8gpu_640.py",
    "metric": {
        "AR@100": 0.465, 
        "AR@300": 0.465, 
        "AR@1000": 0.465, 
        "AR_s@1000": 0.251, 
        "AR_m@1000": 0.437, 
        "AR_l@1000": 0.569, 
        "bbox_AR@100": 0.465, 
        "bbox_AR@300": 0.465, 
        "bbox_AR@1000": 0.465, 
        "bbox_AR_s@1000": 0.251, 
        "bbox_AR_m@1000": 0.437, 
        "bbox_AR_l@1000": 0.569, 
        "bbox_mAP_copypaste": "0.354 0.614 0.359 0.136 0.309 0.469", 
        "segm_AR@100": 0.384, 
        "segm_AR@300": 0.384, 
        "segm_AR@1000": 0.384, 
        "segm_AR_s@1000": 0.185, 
        "segm_AR_m@1000": 0.349, 
        "segm_AR_l@1000": 0.488, 
        "segm_mAP_copypaste": "0.295 0.586 0.268 0.059 0.232 0.434"
    }
}